<svg xmlns="http://www.w3.org/2000/svg" width="75.94" height="102.046" viewBox="0 0 75.94 102.046">
  <g id="Grupo_22" data-name="Grupo 22" transform="translate(751.861 539.439)">
    <path id="Caminho_30" data-name="Caminho 30" d="M-699.529-539.439a10.586,10.586,0,0,1,4.018,2.476,9.092,9.092,0,0,1,2.3,6.5q-.016,9.881,0,19.762v1.116A29.493,29.493,0,0,1-690.358-512,9.837,9.837,0,0,1-676.3-508.33c.59,1.1.452,1.962-.391,2.425s-1.595.115-2.241-1.007a6.832,6.832,0,0,0-9.422-2.8,6.809,6.809,0,0,0-3.463,7.048,6.926,6.926,0,0,0,5.4,5.721,6.93,6.93,0,0,0,7.284-3.205c.154-.256.285-.528.454-.773a1.449,1.449,0,0,1,1.982-.579,1.472,1.472,0,0,1,.568,2.066,9.349,9.349,0,0,1-4.389,4.465,1.408,1.408,0,0,0-.948,1.507c.044,3.892.026,7.785.018,11.677-.007,3.3-1.591,4.863-4.915,4.867h-2.18c0,1.456-.026,2.811.008,4.164a2.3,2.3,0,0,1-1.347,2.53c-.972.4-1.791.063-2.748-1.054-.122-.142-.255-.275-.589-.634v1.385q0,11.977,0,23.954a9.1,9.1,0,0,1-1.67,5.727,8.273,8.273,0,0,1-6.877,3.43q-20.764.033-41.528,0a8.368,8.368,0,0,1-8.558-8.723c-.025-7.419-.006-14.838-.006-22.258q0-31.14,0-62.281a8.464,8.464,0,0,1,4.783-8.106c.459-.239.939-.436,1.409-.652h20.571c.369.63.789,1.252.34,2.018-.465.793-1.236.782-2.018.781q-8.038-.009-16.076,0c-3.812,0-6.011,2.2-6.011,6.011q0,42.13,0,84.26c0,3.752,2.21,5.97,5.95,5.971q20.37.007,40.74,0a8.1,8.1,0,0,0,1.49-.107c2.821-.533,4.461-2.72,4.463-5.967q.011-14.027,0-28.053c0-2.036-.862-2.7-3.016-2.23v1.155q0,9.234,0,18.469c0,2.536-.81,3.342-3.346,3.342h-39.941c-2.507,0-3.34-.837-3.34-3.35q0-33.594,0-67.188c0-2.457.844-3.31,3.279-3.31h40.041c2.476,0,3.306.819,3.307,3.278q.005,7.388,0,14.776c0,.382.042.763.07,1.223.705,0,1.3-.048,1.893.012.824.085,1.072-.207,1.069-1.047-.032-7.088-.005-14.177-.024-21.265-.01-3.8-2.229-5.973-6.052-5.976q-8.138,0-16.276,0a1.747,1.747,0,0,1-1.841-.906,1.669,1.669,0,0,1,.487-1.894Zm-2.762,62.522h-1.135q-6.139,0-12.277,0c-3.174,0-4.793-1.62-4.795-4.784q0-10.878,0-21.756c0-3.306,1.582-4.9,4.872-4.908,4.059-.006,8.118,0,12.178,0,.381,0,.762-.041,1.126-.062v-9.131h-40.472v60.716h40.5Zm7.47-28.4c-.38-.022-.673-.055-.966-.055q-9.933,0-19.866,0c-1.568,0-1.849.292-1.849,1.876q0,10.829,0,21.659c0,1.652.265,1.921,1.9,1.921,5.89,0,11.78.012,17.669-.007a4.02,4.02,0,0,1,3.453,1.635c.744.979,1.562,1.9,2.329,2.865a3.324,3.324,0,0,1,.326.676l.294-.257c0-.731-.011-1.461,0-2.192a2.444,2.444,0,0,1,2.718-2.717c.831-.017,1.664,0,2.5,0,1.578,0,1.874-.288,1.877-1.851q.009-5.34,0-10.68v-1.2a1.964,1.964,0,0,0-.3-.152,1.428,1.428,0,0,0-.3-.034,9.873,9.873,0,0,1-7.927-3.942,1.821,1.821,0,0,0-1.278-.484c-5.59-.032-11.181-.02-16.771-.022a7.142,7.142,0,0,1-1.1-.035,1.354,1.354,0,0,1-1.251-1.33,1.319,1.319,0,0,1,1.027-1.5,4.52,4.52,0,0,1,1.181-.123q7.687-.011,15.374-.005h.952Zm-40.02-15.4h32.547v-3.851h-32.547Zm-7.965-3.892v3.911h4.873v-3.952c-1.459,0-2.847,0-4.236,0C-742.363-524.646-742.555-524.623-742.808-524.607Z" transform="translate(0 0)" fill="#0e2359"/>
    <path id="Caminho_31" data-name="Caminho 31" d="M-427.171-379.678c0,.93.014,1.861,0,2.791-.02,1.086-.6,1.741-1.5,1.735s-1.467-.652-1.489-1.757c-.024-1.229.036-2.461-.032-3.687-.021-.381-.362-.736-.517-1.119-.21-.518-.644-1.142-.5-1.553.163-.467.82-.817,1.333-1.085a2.3,2.3,0,0,1,1.082-.035,1.5,1.5,0,0,1,1.616,1.619C-427.149-381.739-427.172-380.708-427.171-379.678Z" transform="translate(-256.368 -123.939)" fill="#0e2359"/>
    <path id="Caminho_32" data-name="Caminho 32" d="M-620.287-99.165a4.888,4.888,0,0,1-4.861,4.89,4.957,4.957,0,0,1-4.931-4.854,4.941,4.941,0,0,1,4.945-4.933A4.876,4.876,0,0,1-620.287-99.165Zm-6.768-.152a1.942,1.942,0,0,0,1.768,2.032,1.882,1.882,0,0,0,1.979-1.694,1.864,1.864,0,0,0-1.69-2.072A1.92,1.92,0,0,0-627.055-99.317Z" transform="translate(-97.375 -348.123)" fill="#0e2359"/>
    <path id="Caminho_33" data-name="Caminho 33" d="M-625.942-507.558c-1.13,0-2.26.017-3.39-.005a1.533,1.533,0,0,1-1.706-1.443,1.539,1.539,0,0,1,1.72-1.537q3.389-.036,6.779,0a1.492,1.492,0,0,1,1.68,1.552c-.029.867-.649,1.41-1.694,1.429C-623.681-507.541-624.812-507.557-625.942-507.558Z" transform="translate(-96.609 -23.09)" fill="#0e2359"/>
    <path id="Caminho_34" data-name="Caminho 34" d="M-547.345-277.911q5.042,0,10.083,0c.4,0,.9-.093,1.169.106a2.752,2.752,0,0,1,1.1,1.336,1.217,1.217,0,0,1-1.06,1.446,5.3,5.3,0,0,1-1.188.1q-10.133.008-20.266,0A5.712,5.712,0,0,1-558.6-275a1.326,1.326,0,0,1-1.15-1.5,1.28,1.28,0,0,1,1.227-1.335c.792-.075,1.594-.064,2.391-.066Q-551.738-277.918-547.345-277.911Z" transform="translate(-153.609 -209.101)" fill="#0e2359"/>
    <path id="Caminho_35" data-name="Caminho 35" d="M-547.362-310.352q-5.092,0-10.185,0a4.568,4.568,0,0,1-.992-.059,1.383,1.383,0,0,1-1.209-1.571,1.379,1.379,0,0,1,1.352-1.344,6.293,6.293,0,0,1,.8-.02h20.469a6.445,6.445,0,0,1,.8.019,1.4,1.4,0,0,1,1.371,1.442,1.389,1.389,0,0,1-1.225,1.472,4.815,4.815,0,0,1-.993.059Q-542.269-310.349-547.362-310.352Z" transform="translate(-153.607 -180.779)" fill="#0e2359"/>
  </g>
</svg>
