<svg id="logout_black_24dp" xmlns="http://www.w3.org/2000/svg" width="24" height="24" viewBox="0 0 24 24">
  <g id="Grupo_5" data-name="Grupo 5">
    <path id="Caminho_4" data-name="Caminho 4" d="M0,0H24V24H0Z" fill="none"/>
  </g>
  <g id="Grupo_6" data-name="Grupo 6">
    <path id="Caminho_5" data-name="Caminho 5" d="M17,8,15.59,9.41,17.17,11H9v2h8.17l-1.58,1.58L17,16l4-4ZM5,5h7V3H5A2.006,2.006,0,0,0,3,5V19a2.006,2.006,0,0,0,2,2h7V19H5Z" fill="#fff"/>
  </g>
</svg>
