<svg id="menu_black_24dp" xmlns="http://www.w3.org/2000/svg" width="24" height="24" viewBox="0 0 24 24">
  <path id="Caminho_6" data-name="Caminho 6" d="M0,0H24V24H0Z" fill="none"/>
  <path id="Caminho_7" data-name="Caminho 7" d="M3,18H21V16H3Zm0-5H21V11H3ZM3,6V8H21V6Z" fill="#fff"/>
</svg>
