<svg xmlns="http://www.w3.org/2000/svg" width="22.089" height="22.089" viewBox="0 0 22.089 22.089">
  <path id="Icon_simple-instagram" data-name="Icon simple-instagram" d="M11.044,0c-3,0-3.375.014-4.553.066A8.144,8.144,0,0,0,3.81.58,5.408,5.408,0,0,0,1.854,1.854,5.389,5.389,0,0,0,.58,3.81,8.12,8.12,0,0,0,.066,6.491C.011,7.669,0,8.044,0,11.044S.014,14.419.066,15.6A8.149,8.149,0,0,0,.58,18.278a5.416,5.416,0,0,0,1.274,1.957A5.4,5.4,0,0,0,3.81,21.509a8.154,8.154,0,0,0,2.681.514c1.178.055,1.553.066,4.553.066s3.375-.014,4.553-.066a8.173,8.173,0,0,0,2.681-.514,5.644,5.644,0,0,0,3.23-3.23,8.149,8.149,0,0,0,.514-2.681c.055-1.178.066-1.553.066-4.553s-.014-3.375-.066-4.553a8.168,8.168,0,0,0-.514-2.681,5.421,5.421,0,0,0-1.274-1.957A5.381,5.381,0,0,0,18.278.58,8.125,8.125,0,0,0,15.6.066C14.419.011,14.045,0,11.044,0Zm0,1.988c2.948,0,3.3.015,4.464.065a6.085,6.085,0,0,1,2.05.382,3.634,3.634,0,0,1,2.1,2.1,6.1,6.1,0,0,1,.38,2.05c.052,1.165.064,1.515.064,4.464s-.014,3.3-.068,4.464a6.215,6.215,0,0,1-.387,2.05,3.507,3.507,0,0,1-.827,1.272,3.446,3.446,0,0,1-1.27.825,6.143,6.143,0,0,1-2.057.38c-1.173.052-1.518.064-4.472.064s-3.3-.014-4.472-.068a6.262,6.262,0,0,1-2.058-.387,3.42,3.42,0,0,1-1.269-.827,3.354,3.354,0,0,1-.828-1.27A6.268,6.268,0,0,1,2,15.489c-.041-1.16-.056-1.518-.056-4.458S1.961,7.73,2,6.557A6.261,6.261,0,0,1,2.389,4.5,3.274,3.274,0,0,1,3.218,3.23,3.267,3.267,0,0,1,4.487,2.4a6.113,6.113,0,0,1,2.044-.387C7.7,1.974,8.05,1.96,11,1.96l.041.028Zm0,3.385a5.671,5.671,0,1,0,5.671,5.671A5.671,5.671,0,0,0,11.044,5.373Zm0,9.353a3.681,3.681,0,1,1,3.681-3.681A3.68,3.68,0,0,1,11.044,14.726Zm7.221-9.576A1.325,1.325,0,1,1,16.94,3.825,1.326,1.326,0,0,1,18.266,5.149Z" fill="#fff"/>
</svg>
