<svg xmlns="http://www.w3.org/2000/svg" width="22.089" height="17.94" viewBox="0 0 22.089 17.94">
  <path id="Icon_awesome-twitter" data-name="Icon awesome-twitter" d="M19.818,7.852c.014.2.014.392.014.589a12.792,12.792,0,0,1-12.88,12.88A12.793,12.793,0,0,1,0,19.289a9.365,9.365,0,0,0,1.093.056,9.066,9.066,0,0,0,5.62-1.934,4.535,4.535,0,0,1-4.233-3.14,5.709,5.709,0,0,0,.855.07,4.788,4.788,0,0,0,1.191-.154A4.528,4.528,0,0,1,.9,9.744V9.688a4.559,4.559,0,0,0,2.046.575,4.534,4.534,0,0,1-1.4-6.055,12.868,12.868,0,0,0,9.334,4.737,5.11,5.11,0,0,1-.112-1.037A4.531,4.531,0,0,1,18.6,4.81a8.913,8.913,0,0,0,2.873-1.093,4.515,4.515,0,0,1-1.99,2.495,9.075,9.075,0,0,0,2.607-.7,9.731,9.731,0,0,1-2.27,2.341Z" transform="translate(0 -3.381)" fill="#fff"/>
</svg>
